995293 370237 525
111131 818497 509
383940 651926 509
949605 900575 507
271012 548106 470
555428 727021 509
529738 914516 525
862811 963743 507
198167 132785 383
119241 640631 509
818434 33433 509
654205 751178 504
919619 24524 525
220856 409200 443
950834 915829 507
501857 666573 509
950497 608991 525
856291 710353 525
855775 259999 525
995570 692175 525
583518 62975 470
171706 81508 383
197863 261489 443
402947 549801 470
495247 159989 449
83828 162523 383
781841 874640 525
190534 341095 443
570312 256935 470
594083 994836 525
133805 459061 449
783223 369236 509
878920 186056 525
201066 929209 525
932945 367032 525
732579 751214 424
594208 930346 525
958662 167537 525
416247 886296 525
698290 869801 525
808417 207635 509
813111 81886 509
110793 914931 525
10940 335195 443
991493 185990 525
811583 944916 525
939282 11154 525
275981 732388 509
511197 567483 470
574512 797564 509
824069 214207 509
424859 254278 449
415338 942773 525
163003 659761 509
962777 868982 507
129443 722763 509
873800 323069 525
996091 624710 525
605229 623698 447
772783 190036 509
98014 701019 509
367899 414942 449
720744 291336 509
601742 903594 525
405051 920417 525
710416 10166 509
292397 534872 470
408786 508777 449
520939 481917 470
890867 926109 476
335690 654549 509
9768 185306 383
110669 665447 509
379890 645721 509
789102 366437 509
781601 653019 504
21304 706657 509
991533 944298 458
467082 35713 449
180892 430018 449
93553 150842 375
655984 588174 509
545467 21250 470
286603 8967 443
736373 832745 468
697026 567094 509
40017 130090 354
798210 263982 509
31751 462072 449
295781 249025 407
425785 569402 470
843457 588178 525
121853 330781 443
209746 295447 443
685797 179847 509
125075 992681 525
554417 138331 470
648158 785615 504
326101 36477 443
193534 348571 443
850924 839018 419
865721 718001 525
640871 782598 504
436024 891398 525
26217 386110 443
750874 812985 468
526619 391438 470
5249 60206 340
725164 638176 504
972580 619200 525
512128 970674 525
181439 913006 525
697256 398318 509
788934 226802 509
406114 20851 443
283457 65031 443
282256 589285 470
90919 933230 525
370134 305594 441
312290 502079 449
488032 155983 449
717213 282350 509
70107 288943 443
558743 745201 509
830880 333971 509
983802 724099 525
407481 634097 509
705293 85594 509
207101 225447 386
987759 500612 525
86178 429008 449
886829 553623 525
376592 173790 443
21940 538405 470
78931 17921 351
725254 250785 509
783898 819535 468
133759 5427 354
782852 706121 468
832051 994173 525
94677 227280 386
659724 225085 509
286278 407016 441
249697 254335 332
259415 838681 525
776875 931876 525
560063 611626 434
678077 896410 525
484103 291774 449
788438 323321 509
785223 709994 468
814976 135638 509
8782 640345 509
44914 291012 443
946962 962160 414
250659 817474 509
564437 105924 470
2859 942102 525
889556 604345 525
132254 55150 354
283362 102358 443
757935 509365 509
975257 19554 525
798864 928387 525
872094 859339 432
874223 642908 525
870583 191681 525
164073 37662 383
504855 264274 449
951364 877276 507
898190 655402 525
70103 688206 509
754411 528973 509
203411 901173 525
452175 69283 449
822755 564804 509
748248 999560 525
628787 728436 504
155199 5165 375
301556 595265 470
273228 929495 525
911993 722305 525
109647 664827 509
653290 172787 509
593894 718523 509
863136 118218 525
665841 565930 509
765673 854406 525
120013 993783 525
923297 382862 525
803784 137199 509
813382 479886 509
907659 66303 525
201260 171004 365
185039 508454 449
219316 762925 509
613290 229185 470
492982 527876 470
958002 110900 525
590706 720189 509
570850 302829 470
961417 127255 525
306813 429599 449
915226 688423 525
103263 517207 470
173482 534731 470
687481 724891 504
243711 767449 509
30704 112921 354
59557 146998 375
532738 204971 470
567447 89743 470
806133 641393 504
366189 495784 449
683488 185397 509
651533 855219 525
384177 267380 441
686188 569689 509
879899 969176 507
922780 465732 525
888006 268092 525
985291 363668 525
781589 345394 509
208919 384749 443
152958 493727 449
984068 916160 507
471150 255841 449
696348 356781 509
43560 944272 525
341240 766155 509
531390 555753 452
526290 602099 452
499513 875929 525
24631 294979 443
661234 23617 509
300190 127915 443
505387 764780 509
711475 582588 509
780456 864902 525
798147 554216 509
237378 45023 443
828845 181699 509
866617 961649 507
287228 581950 470
532466 789807 509
363242 899162 525
145195 350296 443
547199 945969 525
168893 489307 449
350399 126644 443
