140892 596854 470
888599 841236 445
800876 66173 509
267460 123647 443
519502 797927 509
471326 495186 426
683245 398056 509
827037 220154 509
98419 511555 449
29725 936711 525
876364 408745 525
453790 636945 509
799309 804424 406
2209 729634 509
467023 279268 449
756590 840776 525
239875 619870 470
991189 107193 525
945216 332850 525
32076 23407 308
26682 681099 509
567713 9653 470
984770 924041 507
399722 719831 509
227121 442622 449
761112 30452 509
553260 232461 470
800799 459159 509
984788 519897 525
579716 244407 470
362494 242082 441
709728 229409 509
797912 481930 509
998501 303859 525
971513 22534 525
436397 878265 525
960779 583485 525
966985 673495 525
104858 194937 383
659925 758791 504
901720 310788 525
126763 779246 509
348857 939079 525
756532 745739 424
525127 981930 525
442612 532381 470
870356 954399 507
702867 199072 509
318105 297963 384
616123 925347 525
523620 887303 525
986620 529829 525
412462 617614 470
894738 36203 525
503555 254532 449
779859 836139 468
423927 434440 387
697035 181412 509
384958 575458 470
925612 737192 525
813525 707250 468
774076 392905 509
90668 460285 449
696001 533124 509
113175 816257 509
171651 546244 470
880754 412358 525
388522 513481 470
768361 31012 509
492118 45600 449
323517 737550 509
889509 644676 525
621999 606262 447
412720 678593 509
178625 176784 347
526636 237962 470
12900 807953 509
209209 565830 470
964781 902080 507
574975 243455 470
424102 538729 470
360528 998735 525
888628 605862 525
370435 481435 449
953948 282360 525
691237 574616 509
638525 764832 504
5987 402328 443
821723 898577 525
860342 929227 476
984046 776475 525
537396 848445 525
135528 543874 470
815161 588627 509
215467 446789 449
995853 58850 525
504472 912272 525
382454 597688 470
581332 209547 470
986725 529238 525
433482 508481 444
852861 374122 525
434556 362890 449
1662 564636 470
566346 653777 509
824647 642203 504
347223 480402 449
628994 29334 509
843653 240759 525
666235 185820 509
577510 612852 434
189566 902834 525
96052 837224 509
577796 835818 509
892626 856097 445
976172 267696 525
34036 882634 525
989406 705811 525
73876 87278 351
910246 17502 525
475004 15268 449
790779 792291 344
294857 261682 407
281692 114808 443
836017 655153 504
193578 361154 443
304386 72893 443
175606 167380 347
267614 552999 470
998200 176313 525
688555 286172 509
679690 746157 504
308799 476790 449
736757 337644 509
520612 496785 470
119738 24783 354
327161 405335 441
360021 441366 449
834880 197174 509
270974 114045 443
265771 943529 525
765621 534896 509
219248 635069 509
452624 856729 525
21830 236322 443
18733 416616 449
153577 37043 375
753754 168011 509
467318 738833 509
530904 711119 509
447391 571162 470
872673 231316 525
661413 836566 504
728814 541694 509
472746 234038 449
549345 680009 509
32192 414081 449
707687 603819 509
842411 336851 525
691876 661597 442
447008 61641 449
773274 313112 509
131789 222437 386
918065 49745 525
321270 74163 443
900218 80160 525
325440 961730 525
984916 312350 525
779975 165893 509
436389 592384 470
264617 136726 443
8893 587955 470
921403 891842 476
39759 619273 470
859218 228161 525
944571 597983 525
483239 179849 449
868130 909935 445
912143 817908 525
738222 653224 504
533593 39242 470
396330 210143 443
363784 103836 443
215757 601236 470
706901 940118 525
453982 620138 470
203549 516268 470
109497 983516 525
698308 409009 509
310455 528595 470
524079 18036 470
341150 641864 509
913962 421869 525
943382 295019 525
18972 164591 383
210610 899193 525
343662 850541 525
590706 820721 509
141708 355568 443
450092 223378 449
279483 707218 509
101089 878394 525
397656 977470 525
574229 360553 470
958865 925257 507
878385 720488 525
560286 508034 470
805256 558389 509
246039 68496 443
760706 42363 509
88794 139479 354
177938 174644 334
955240 564353 525
223314 281029 443
795992 348373 509
629365 530463 509
881992 267693 525
385990 355312 423
356815 119447 443
305362 246615 407
909556 989851 507
633322 817407 504
749846 930365 525
512537 141921 470
608130 577945 434
807669 109341 509
336306 41039 443
426350 76749 449
398701 908244 525
826400 154486 509
868752 131091 525
357457 120261 443
645070 615942 509
819886 971155 525
396404 80376 443
598508 577005 434
234582 593459 470
85715 998503 525
279681 382617 441
934039 309910 525
591866 560249 434
970004 119870 525
480006 940321 525
290648 112964 443
825245 47975 509
867978 310104 525
12984 643487 509
702978 15255 509
96137 433623 449
120694 866250 525
928053 828248 525
41968 197051 383
251274 823670 509
615297 441465 470
169891 121172 383
472812 175515 449
713965 253148 509
166666 780148 509
886067 107830 525
456239 955006 525
396653 845664 525
569299 953390 525
858103 308307 525
576937 265720 470
746179 500182 509
329735 104994 443
217700 683725 509
332836 41545 443
28587 11017 308
825083 970566 525
309907 761774 509
625550 335808 470
471697 410276 444
328499 417916 449
66024 67311 268
957761 332766 525
630663 478002 509
116772 262210 443
225647 823275 509
647818 815708 504
934501 569286 525
909760 721620 525
491699 693984 509
373112 271672 441
192123 567912 470
217933 322250 443
208894 258350 443
377974 85322 443
859809 294427 525
93759 789879 509
469660 94885 449
683683 602257 509
674724 355346 509
986432 238474 525
409447 321687 441
43047 343138 443
195888 332121 443
831240 888286 525
607133 936903 525
966108 317519 525
