1 10 20
100 200 125
201 210 89
900 1000 174
10 20 21
1 5 8
20 25 24
5 1 8
319525 607251 470
124477 32286 354
941615 723664 525
98896 145013 375
805179 72391 509
564926 691769 509
164457 809622 509
693968 727461 504
882830 705017 525
8212 979400 525
327967 745929 509
830456 771710 468
127082 18824 354
568972 444713 470
333397 91830 443
38175 474070 449
796458 197006 509
283171 594777 470
605347 421597 470
313208 917305 525
763541 883801 525
156383 104893 383
667658 311062 509
525616 676704 509
331651 959886 525
698572 67500 509
412743 837148 509
774352 966047 525
82592 554775 470
651298 181305 509
960797 898705 507
20142 248434 443
699173 811091 504
109296 31164 354
326382 797270 509
879404 191925 525
417649 634595 509
515821 444178 470
89155 110299 354
960021 23292 525
934329 20198 525
169282 266647 443
687599 466583 509
299400 777177 509
510436 137048 449
879417 470090 525
284600 319479 389
358343 263533 441
321408 993652 525
439561 618879 470
679026 494027 509
372127 1171 443
289490 176494 443
344639 625869 470
278088 782558 509
128661 856460 525
61367 664413 509
677080 357561 509
326486 915322 525
346995 928691 525
295291 28632 443
325630 710118 509
825336 182767 509
181293 802252 509
743332 157007 509
584947 558671 434
399526 28014 443
26654 222568 386
795321 11473 509
401159 741436 509
654856 655888 385
315855 9866 443
806207 193123 509
641502 918472 525
935270 354895 525
808839 494349 509
915381 417147 525
76894 325587 443
124163 739479 509
545815 951354 525
870078 516922 525
178943 196037 365
481323 528426 470
65682 210247 383
721411 267531 509
390056 57091 443
508187 30119 449
880243 292184 525
373466 600542 470
594524 559193 434
764899 742793 424
675024 49728 509
363095 207723 443
239439 926767 525
241670 543608 470
269440 278944 407
955502 324764 525
127409 622002 470
47542 837167 509
900934 468577 525
437912 140950 449
729595 229433 509
819051 835126 450
186763 455281 449
847420 700129 525
909892 174859 525
326608 188636 443
887935 355509 525
867654 42088 525
931354 121275 525
22767 213912 383
61372 10609 340
97976 146079 375
323364 507873 449
164983 204660 365
352641 170917 443
223939 177992 386
868134 90746 525
24982 453700 449
103450 816448 509
826798 518170 509
37011 412588 449
72465 727693 509
15688 589729 470
589547 941118 525
163964 423004 449
521728 661094 509
631727 547999 509
127291 488302 449
660316 435782 509
468083 869610 525
110489 202344 383
370632 867214 525
500646 526631 470
657408 655256 429
103018 473156 449
357489 33514 443
344091 629677 509
961923 557829 525
76933 231244 443
324272 937045 525
240147 297943 407
214471 364863 443
106469 712154 509
122763 716856 509
695328 703906 411
792691 617693 509
229509 427537 449
257126 605929 470
213336 360763 443
707918 124729 509
444779 37788 449
377480 698213 509
875546 594929 525
970639 741027 525
137872 743914 509
727684 341276 509
371302 812070 509
592421 835509 509
956535 893611 507
167202 190841 365
732009 593986 509
61415 233765 443
288572 182293 443
62925 909557 525
859482 7461 525
176822 874719 525
687102 834142 504
762285 377573 509
386372 25421 443
976927 54056 525
352394 616415 470
81795 256836 443
380798 508255 449
693387 105806 509
556819 101383 470
352452 430750 449
546250 472570 470
847293 761081 525
482443 37464 449
82962 301032 443
354238 951928 525
149311 517634 470
217311 23166 386
7416 383626 443
274489 756115 509
828531 488545 509
993044 569502 525
29630 782507 509
334343 657835 509
734119 39874 509
547147 135985 470
651639 535435 509
823176 932053 525
320961 924884 525
103830 15453 351
931242 102867 525
108296 415450 449
356392 329881 441
790795 358633 509
39336 668864 509
969371 302179 525
15542 637658 509
833529 701351 504
447154 65463 449
987358 287457 525
573812 1370 470
565535 328117 470
426397 693038 509
179981 414753 449
145995 916459 525
877623 160505 525
733151 511474 509
198851 558060 470
676523 394894 509
619285 205254 470
844172 293139 525
330235 667793 509
485007 799417 509
927216 234602 525
325000 393319 441
296935 106642 443
915268 732488 525
289668 756447 509
177576 65653 383
511835 593483 470
65336 318131 443
796110 603493 509
801206 625289 509
458070 681578 509
401582 892975 525
886363 338824 525
218594 760140 509
176886 175559 334
363682 509816 449
229624 622801 470
908995 268126 525
44227 109282 354
729757 143734 509
526321 509427 470
337159 705105 509
15034 111993 354
986917 123277 525
3297 26365 282
584619 948433 525
963794 151820 525
544237 942458 525
945934 19355 525
788167 810182 468
800203 431895 509
